0.2491495f, -0.1460339f,
0.3342449f, -0.0778281f,
0.314864f, -0.2384766f,
0.1479324f, -0.2534412f,
0.2444605f, -0.3264627f,
0.239092f, -0.01953392f,
0.06258875f, -0.1699474f,
0.09031498f, -0.05055494f,
0.4276557f, -0.3028777f,
0.4701882f, -0.1859342f,
0.3121912f, -0.4043266f,
0.6188323f, -0.3159304f,
0.4184858f, -0.455418f,
0.5859613f, -0.210981f,
0.4166639f, 0.02460686f,
0.3309015f, 0.09356065f,
0.150148f, 0.07949905f,
-0.04337092f, -0.1818532f,
-0.06076177f, 0.02721132f,
-0.008522678f, -0.08687034f,
0.2465081f, 0.1644043f,
0.5185497f, -0.01414375f,
0.7233673f, -0.1917314f,
0.7266423f, -0.2946866f,
0.6848212f, -0.04652501f,
0.8110316f, 0.0891626f,
0.8532553f, -0.02660069f,
0.670366f, 0.09147879f,
-0.2064163f, -0.0608799f,
-0.1729579f, -0.1815917f,
0.04786589f, 0.09949436f,
0.04830889f, -0.2767305f,
0.457271f, 0.2004729f,
0.3656202f, 0.2490061f,
-0.1380124f, -0.2863388f,
-0.01695578f, -0.3601693f,
-0.02751607f, 0.1701936f,
-0.1505295f, 0.1976429f,
-0.2256468f, 0.05348429f,
0.08151593f, -0.4220457f,
-0.2614458f, -0.3779348f,
-0.3044448f, -0.1947861f,
-0.3283067f, 0.2799098f,
-0.3310266f, 0.1611417f,
-0.1352035f, 0.3120636f,
-0.02444821f, 0.3478645f,
-0.147513f, -0.4550191f,
-0.1126453f, -0.09732544f,
-0.2497564f, -0.5923148f,
-0.01697115f, -0.5009388f,
-0.07052282f, -0.6368104f,
-0.3458567f, -0.4402606f,
0.4303042f, 0.4119427f,
0.2210459f, 0.290625f,
0.2924778f, 0.5052316f,
0.5845989f, 0.3610216f,
0.5629247f, 0.5588475f,
0.3690561f, 0.5843061f,
0.4764843f, 0.3214804f,
-0.42546f, -0.6106678f,
-0.4712515f, -0.294832f,
-0.5322568f, -0.4512343f,
-0.3524851f, -0.3153689f,
0.556712f, 0.2456823f,
0.6744243f, 0.2093923f,
0.5524308f, 0.1428896f,
0.6957378f, 0.3575883f,
-0.4088608f, 0.4010573f,
-0.3077004f, 0.4030043f,
-0.4542879f, 0.2675005f,
-0.4788255f, 0.1519974f,
0.8723974f, -0.2720244f,
0.8968325f, -0.1486743f,
0.5965247f, -0.09612613f,
0.314721f, 0.3608411f,
0.4626978f, 0.5288131f,
-0.5312344f, 0.3978693f,
-0.2576854f, 0.5030174f,
-0.5007848f, 0.5117115f,
-0.3544104f, 0.5541708f,
0.03814091f, -0.6552604f,
-0.1427827f, -0.5574442f,
0.0970441f, -0.5568831f,
0.1766422f, -0.4693028f,
-0.6238024f, -0.401178f,
-0.4960141f, -0.1527473f,
-0.5953529f, -0.2533265f,
0.2234521f, -0.5662943f,
0.1594265f, -0.7440622f,
0.2439993f, -0.6819086f,
0.4688111f, -0.5897816f,
0.5369391f, -0.4620414f,
0.3466155f, -0.5731996f,
-0.1331024f, -0.7327215f,
0.06336871f, -0.7825285f,
-0.03281945f, -0.8326336f,
0.05087773f, -0.9058886f,
0.2340075f, -0.9184476f,
0.315846f, -0.8277953f,
-0.3129521f, -0.06171576f,
0.8809378f, -0.4071209f,
0.7636064f, -0.399108f,
0.8177934f, -0.4864973f,
0.6714715f, -0.4425129f,
0.7509708f, -0.5860738f,
-0.6170473f, -0.1365805f,
-0.7326522f, -0.3116161f,
0.4777687f, 0.6729133f,
0.3809376f, 0.7457889f,
0.2641502f, 0.7239438f,
0.2704893f, 0.6146401f,
0.08006323f, 0.2519272f,
0.6137162f, 0.6888891f,
0.6921933f, 0.6114846f,
0.7217175f, 0.5119148f,
0.9164307f, 0.08205564f,
0.880895f, 0.2182022f,
0.4903289f, 0.7791957f,
0.798159f, 0.3286262f,
0.7738916f, 0.1824807f,
-0.2115694f, 0.6161364f,
-0.08439497f, 0.4549174f,
-0.6100733f, 0.4780588f,
-0.7216471f, 0.3991137f,
-0.6278352f, 0.2638112f,
-0.7881259f, -0.2038223f,
-0.4708913f, -0.711394f,
-0.2581791f, -0.7065522f,
-0.3561582f, -0.7580175f,
-0.5763742f, -0.6496887f,
0.1104584f, 0.3779906f,
0.2030439f, 0.4296401f,
-0.8537077f, -0.4175398f,
-0.8884009f, -0.2635939f,
-0.7216184f, -0.5059398f,
0.9699709f, 0.1712453f,
0.9721387f, -0.01189043f,
-0.2341564f, -0.8144069f,
-0.1507338f, -0.871568f,
0.3963553f, -0.7551007f,
0.5933159f, -0.7260066f,
0.6093518f, -0.625635f,
0.3458312f, 0.8685687f,
0.4648393f, 0.8808306f,
-0.6147957f, -0.5239304f,
0.9076997f, 0.3518615f,
0.7963243f, 0.4335047f,
-0.5416216f, 0.6947147f,
-0.4255466f, 0.65951f,
-0.6975795f, 0.5270255f,
-0.6308398f, 0.6437694f,
-0.8050717f, -0.5819999f,
-0.07021196f, -0.9318223f,
-0.5257466f, -0.8402941f,
-0.699064f, -0.6288446f,
0.1540078f, 0.6696858f,
0.1142054f, 0.521062f,
-0.5220531f, 0.7955221f,
-0.315893f, 0.7025552f,
-0.3419976f, 0.8095868f,
-0.209036f, 0.3819295f,
0.01107946f, 0.5271043f,
-0.05522101f, 0.624761f,
-0.07623022f, 0.7225649f,
-0.1975019f, 0.7475744f,
0.5931068f, 0.7970114f,
-0.7072893f, -0.07770602f,
-0.9581144f, -0.1630485f,
-0.8749275f, -0.0562977f,
0.05694503f, 0.6978081f,
-0.3559084f, -0.9075065f,
0.07822718f, 0.8074673f,
0.1730122f, 0.8614511f,
0.8205346f, 0.5421127f,
-0.126492f, 0.5503958f,
-0.6425353f, -0.7653459f,
-0.3918203f, 0.0138478f,
-0.4132502f, -0.08551845f,
0.4064981f, -0.8941354f,
0.71347f, -0.6938059f,
0.4791321f, -0.8139166f,
-0.01063817f, 0.8557152f,
0.08478939f, 0.9287571f,
-0.2539583f, -0.4833305f,
-0.5073529f, -0.04356102f,
-0.5985023f, 0.09607742f,
-0.1168192f, 0.8418381f,
-0.2772072f, 0.9216898f,
-0.6963359f, 0.1848116f,
-0.771665f, 0.04657986f,
-0.6221893f, -0.01671849f,
0.630923f, 0.4613658f,
-0.8525046f, 0.1665186f,
-0.7607682f, 0.2919352f,
0.2281812f, 0.9652898f,
-0.06793731f, 0.9864515f,
-0.9507846f, 0.04271579f,
-0.388249f, 0.9120143f,
0.4907971f, -0.6897996f,
-0.1717358f, 0.9284185f,
-0.3359973f, -0.5408402f,
-0.9641194f, 0.1446825f,
-0.9130441f, 0.3260049f,
-0.262601f, -0.9648232f,
-0.8434882f, 0.4830208f,
-0.6195716f, 0.7682689f,
-0.8073305f, 0.5801584f,
0.1169548f, -0.989899f,
-0.8214337f, 0.3808597f,
0.1481062f, -0.8606017f