vec2(0.2491495f, -0.1460339), vec2(0.3342449f, -0.0778281), vec2(0.314864f, -0.2384766), vec2(0.1479324f, -0.2534412), 
vec2(0.2444605f, -0.3264627), vec2(0.239092f, -0.01953392), vec2(0.06258875f, -0.1699474), vec2(0.09031498f, -0.05055494), 
vec2(0.4276557f, -0.3028777), vec2(0.4701882f, -0.1859342), vec2(0.3121912f, -0.4043266), vec2(0.6188323f, -0.3159304), 
vec2(0.4184858f, -0.455418), vec2(0.5859613f, -0.210981), vec2(0.4166639f, 0.02460686), vec2(0.3309015f, 0.09356065), 
vec2(0.150148f, 0.07949905), vec2(-0.04337092f, -0.1818532), vec2(-0.06076177f, 0.02721132), vec2(-0.008522678f, -0.08687034), 
vec2(0.2465081f, 0.1644043), vec2(0.5185497f, -0.01414375), vec2(0.7233673f, -0.1917314), vec2(0.7266423f, -0.2946866), 
vec2(0.6848212f, -0.04652501), vec2(0.8110316f, 0.0891626), vec2(0.8532553f, -0.02660069), vec2(0.670366f, 0.09147879), 
vec2(-0.2064163f, -0.0608799), vec2(-0.1729579f, -0.1815917), vec2(0.04786589f, 0.09949436), vec2(0.04830889f, -0.2767305), 
vec2(0.457271f, 0.2004729), vec2(0.3656202f, 0.2490061), vec2(-0.1380124f, -0.2863388), vec2(-0.01695578f, -0.3601693), 
vec2(-0.02751607f, 0.1701936), vec2(-0.1505295f, 0.1976429), vec2(-0.2256468f, 0.05348429), vec2(0.08151593f, -0.4220457), 
vec2(-0.2614458f, -0.3779348), vec2(-0.3044448f, -0.1947861), vec2(-0.3283067f, 0.2799098), vec2(-0.3310266f, 0.1611417), 
vec2(-0.1352035f, 0.3120636), vec2(-0.02444821f, 0.3478645), vec2(-0.147513f, -0.4550191), vec2(-0.1126453f, -0.09732544), 
vec2(-0.2497564f, -0.5923148), vec2(-0.01697115f, -0.5009388), vec2(-0.07052282f, -0.6368104), vec2(-0.3458567f, -0.4402606), 
vec2(0.4303042f, 0.4119427), vec2(0.2210459f, 0.290625), vec2(0.2924778f, 0.5052316), vec2(0.5845989f, 0.3610216), 
vec2(0.5629247f, 0.5588475), vec2(0.3690561f, 0.5843061), vec2(0.4764843f, 0.3214804), vec2(-0.42546f, -0.6106678), 
vec2(-0.4712515f, -0.294832), vec2(-0.5322568f, -0.4512343), vec2(-0.3524851f, -0.3153689), vec2(0.556712f, 0.2456823), 
vec2(0.6744243f, 0.2093923), vec2(0.5524308f, 0.1428896), vec2(0.6957378f, 0.3575883), vec2(-0.4088608f, 0.4010573), 
vec2(-0.3077004f, 0.4030043), vec2(-0.4542879f, 0.2675005), vec2(-0.4788255f, 0.1519974), vec2(0.8723974f, -0.2720244), 
vec2(0.8968325f, -0.1486743), vec2(0.5965247f, -0.09612613), vec2(0.314721f, 0.3608411), vec2(0.4626978f, 0.5288131), 
vec2(-0.5312344f, 0.3978693), vec2(-0.2576854f, 0.5030174), vec2(-0.5007848f, 0.5117115), vec2(-0.3544104f, 0.5541708), 
vec2(0.03814091f, -0.6552604), vec2(-0.1427827f, -0.5574442), vec2(0.0970441f, -0.5568831), vec2(0.1766422f, -0.4693028), 
vec2(-0.6238024f, -0.401178), vec2(-0.4960141f, -0.1527473), vec2(-0.5953529f, -0.2533265), vec2(0.2234521f, -0.5662943), 
vec2(0.1594265f, -0.7440622), vec2(0.2439993f, -0.6819086), vec2(0.4688111f, -0.5897816), vec2(0.5369391f, -0.4620414), 
vec2(0.3466155f, -0.5731996), vec2(-0.1331024f, -0.7327215), vec2(0.06336871f, -0.7825285), vec2(-0.03281945f, -0.8326336), 
vec2(0.05087773f, -0.9058886), vec2(0.2340075f, -0.9184476), vec2(0.315846f, -0.8277953), vec2(-0.3129521f, -0.06171576), 
vec2(0.8809378f, -0.4071209), vec2(0.7636064f, -0.399108), vec2(0.8177934f, -0.4864973), vec2(0.6714715f, -0.4425129), 
vec2(0.7509708f, -0.5860738), vec2(-0.6170473f, -0.1365805), vec2(-0.7326522f, -0.3116161), vec2(0.4777687f, 0.6729133), 
vec2(0.3809376f, 0.7457889), vec2(0.2641502f, 0.7239438), vec2(0.2704893f, 0.6146401), vec2(0.08006323f, 0.2519272), 
vec2(0.6137162f, 0.6888891), vec2(0.6921933f, 0.6114846), vec2(0.7217175f, 0.5119148), vec2(0.9164307f, 0.08205564), 
vec2(0.880895f, 0.2182022), vec2(0.4903289f, 0.7791957), vec2(0.798159f, 0.3286262), vec2(0.7738916f, 0.1824807), 
vec2(-0.2115694f, 0.6161364), vec2(-0.08439497f, 0.4549174), vec2(-0.6100733f, 0.4780588), vec2(-0.7216471f, 0.3991137), 
vec2(-0.6278352f, 0.2638112), vec2(-0.7881259f, -0.2038223), vec2(-0.4708913f, -0.711394), vec2(-0.2581791f, -0.7065522), 
vec2(-0.3561582f, -0.7580175), vec2(-0.5763742f, -0.6496887), vec2(0.1104584f, 0.3779906), vec2(0.2030439f, 0.4296401), 
vec2(-0.8537077f, -0.4175398), vec2(-0.8884009f, -0.2635939), vec2(-0.7216184f, -0.5059398), vec2(0.9699709f, 0.1712453), 
vec2(0.9721387f, -0.01189043), vec2(-0.2341564f, -0.8144069), vec2(-0.1507338f, -0.871568), vec2(0.3963553f, -0.7551007), 
vec2(0.5933159f, -0.7260066), vec2(0.6093518f, -0.625635), vec2(0.3458312f, 0.8685687), vec2(0.4648393f, 0.8808306), 
vec2(-0.6147957f, -0.5239304), vec2(0.9076997f, 0.3518615), vec2(0.7963243f, 0.4335047), vec2(-0.5416216f, 0.6947147), 
vec2(-0.4255466f, 0.65951), vec2(-0.6975795f, 0.5270255), vec2(-0.6308398f, 0.6437694), vec2(-0.8050717f, -0.5819999), 
vec2(-0.07021196f, -0.9318223), vec2(-0.5257466f, -0.8402941), vec2(-0.699064f, -0.6288446), vec2(0.1540078f, 0.6696858), 
vec2(0.1142054f, 0.521062), vec2(-0.5220531f, 0.7955221), vec2(-0.315893f, 0.7025552), vec2(-0.3419976f, 0.8095868), 
vec2(-0.209036f, 0.3819295), vec2(0.01107946f, 0.5271043), vec2(-0.05522101f, 0.624761), vec2(-0.07623022f, 0.7225649), 
vec2(-0.1975019f, 0.7475744), vec2(0.5931068f, 0.7970114), vec2(-0.7072893f, -0.07770602), vec2(-0.9581144f, -0.1630485), 
vec2(-0.8749275f, -0.0562977), vec2(0.05694503f, 0.6978081), vec2(-0.3559084f, -0.9075065), vec2(0.07822718f, 0.8074673), 
vec2(0.1730122f, 0.8614511), vec2(0.8205346f, 0.5421127), vec2(-0.126492f, 0.5503958), vec2(-0.6425353f, -0.7653459), 
vec2(-0.3918203f, 0.0138478), vec2(-0.4132502f, -0.08551845), vec2(0.4064981f, -0.8941354), vec2(0.71347f, -0.6938059), 
vec2(0.4791321f, -0.8139166), vec2(-0.01063817f, 0.8557152), vec2(0.08478939f, 0.9287571), vec2(-0.2539583f, -0.4833305), 
vec2(-0.5073529f, -0.04356102), vec2(-0.5985023f, 0.09607742), vec2(-0.1168192f, 0.8418381), vec2(-0.2772072f, 0.9216898), 
vec2(-0.6963359f, 0.1848116), vec2(-0.771665f, 0.04657986), vec2(-0.6221893f, -0.01671849), vec2(0.630923f, 0.4613658), 
vec2(-0.8525046f, 0.1665186), vec2(-0.7607682f, 0.2919352), vec2(0.2281812f, 0.9652898), vec2(-0.06793731f, 0.9864515), 
vec2(-0.9507846f, 0.04271579), vec2(-0.388249f, 0.9120143), vec2(0.4907971f, -0.6897996), vec2(-0.1717358f, 0.9284185), 
vec2(-0.3359973f, -0.5408402), vec2(-0.9641194f, 0.1446825), vec2(-0.9130441f, 0.3260049), vec2(-0.262601f, -0.9648232), 
vec2(-0.8434882f, 0.4830208), vec2(-0.6195716f, 0.7682689), vec2(-0.8073305f, 0.5801584), vec2(0.1169548f, -0.989899), 
vec2(-0.8214337f, 0.3808597), vec2(0.1481062f, -0.860601)